48329,15763 34146,49538 34260,49601 34146,49538 34260,49601 30015,47874 899,47874 19396,48106 20108,39231 18507,37927 22127,66995 4246,19368 3721,14627 15023,36296 14700,37911 720,20703 5479,15920 3129,168807 7827,11412 10108,18945 5470,10254 
34146,48215 0,12882 34146,14383 34146,13088 34146,14383 30015,3681 899,3681 19399,12828 20108,15065 18507,14369 22125,10475 4133,16882 3721,9200 13985,15919 14221,16296 717,4409 5479,9102 2308,8093 7827,3473 9994,9147 5470,7791 
34260,42375 34146,12991 0,14493 34146,13197 34260,14493 30015,3792 899,3792 19396,12925 20108,15165 18507,14465 22122,10560 4247,14948 3721,9200 14098,15598 14333,15692 717,4454 5479,9189 2868,7844 7827,3587 10108,9193 5470,7929 
34146,38396 34146,13048 34146,14544 240,13052 34146,14544 30015,3993 899,3993 19431,12858 20107,15097 18507,14388 22122,10561 4133,16169 3661,9270 13986,16861 14221,16078 717,4412 5489,9106 2251,7857 7823,3568 9994,9206 5470,7826 
34260,42375 34146,12991 34260,14493 34146,13197 0,14493 30015,3792 899,3792 19396,12925 20108,15164 18507,14468 22124,10992 4247,14948 3721,9200 14098,15598 14333,15692 717,4453 5479,9189 2868,7844 7827,3587 10108,9193 5470,7937 
30015,38130 30015,9201 30015,10703 30015,9394 30015,10703 0,0 899,0 15792,9095 20108,11446 18507,10789 22124,7271 0,10707 0,9178 10475,11811 10700,11905 86,2024 2281,8304 0,5663 7827,2 6523,8570 5470,5511 
30016,44084 30016,9203 30016,10704 30016,9396 30016,10704 30016,0 0,0 15792,9107 20109,11445 18508,10788 22127,7252 0,10711 0,9180 10478,11791 10701,11886 87,2335 2282,9234 0,6557 7828,2 6524,8550 5471,5579 
43709,47957 43709,20537 43709,21156 43709,20776 43709,21156 26894,15832 1338,15832 34730,21491 24151,27546 21926,26346 26852,26871 16817,23696 14763,6008 17344,20188 17638,20262 3194,10917 13645,8753 11827,15144 0,13830 13827,9558 0,9990 
20108,28223 20108,13721 20108,14007 20100,13755 20108,14007 20108,11447 81,11447 14155,15005 11446,0 18507,10856 20049,14014 0,8412 0,4475 3476,8952 3121,9644 68,1163 0,3677 0,160698 0,0 0,6693 0,0 
18507,26622 18507,11564 18507,11767 18507,11591 18507,11767 18507,10788 64,10788 13014,10259 18507,10854 10788,0 18466,15403 0,3328 0,2641 2141,5493 2337,5641 63,758 0,2217 0,1340 0,0 0,3357 0,0 
73196,81311 73196,26035 73196,27928 73196,26361 73196,27928 73196,15250 1917,15250 55382,25840 68976,45803 65963,44877 69794,32152 0,13452 0,11485 9061,14378 9596,14442 337,4146 0,9811 0,7122 0,0 0,13394 0,0 
13781,18041 13463,13788 13781,13788 13463,13788 13781,13788 0,12340 0,12340 11743,13837 0,12076 0,11958 0,12097 13789,15296 12223,12952 11796,13458 11821,13456 2251,12949 10552,13750 7211,14387 0,11645 11645,13387 0,7909 
3721,7969 3721,3603 3721,3603 3661,3607 3721,3603 0,3601 0,3601 3233,3596 0,3534 0,3496 0,3552 3723,5249 17,8 3502,3756 3513,3740 565,2294 2797,799 2694,1940 0,3454 3454,604 0,2309 
24575,32444 24526,24522 24575,24571 24526,24523 24575,24571 24512,23709 0,23709 7991,19626 8084,8444 7399,8384 8369,8456 8449,22615 7444,19358 23843,24624 24569,24541 2734,9996 10235,22288 3917,15120 16128,23455 22364,22468 11258,20546 
25635,33464 25589,25162 25635,25295 25589,25163 25635,25295 25579,23965 0,23965 8352,20729 8558,8966 7895,8883 8884,9365 8949,23675 7891,20264 25635,29658 24628,28543 3482,10474 10504,23049 4861,15886 16688,23720 23435,22916 11578,21298 
896,19236 896,922 896,922 896,922 896,922 895,863 0,863 878,986 831,842 821,838 896,863 897,2552 793,879 869,903 869,903 916,981 890,908 1305,3066 0,795 795,883 0,628 
5479,9722 5479,4479 5479,4738 5479,4452 5479,4738 2281,3833 0,3833 2832,3664 0,2732 0,2700 0,2750 3200,6063 2797,1153 4922,5087 4928,5093 627,2176 1275,1267 1733,2452 2281,3624 3896,2318 1832,3634 
609037,613283 609037,573659 609037,573659 609037,573944 609037,573659 0,572896 0,572896 578946,575110 0,558507 0,544070 0,564343 609039,609231 572545,38192 553345,572980 555290,572991 136771,414895 472190,170268 609046,609039 0,537310 537310,172150 0,462082 
7827,15652 7827,5745 7827,6520 7823,5752 7827,6520 7827,2 0,2 0,5205 0,0 0,0 0,0 0,6522 0,5728 7828,7726 7827,7794 0,1181 2281,5386 0,3754 2,0 6523,4390 5470,5493 
7226,15060 7226,7216 7226,7216 7226,7216 7226,7216 7226,7172 0,7172 5725,7278 0,6949 0,6892 0,6989 7177,7234 6338,1154 7227,7738 7227,7566 1265,4924 5704,3397 4150,11125 7226,4864 5114,2269 4996,5915 
6032,13864 6032,6038 6032,6038 6032,6038 6032,6038 6032,6037 0,6037 0,3920 0,0 0,0 0,0 0,4927 0,4202 6033,6078 6033,6158 0,1033 1913,5902 0,3281 6032,6037 4926,6022 6037,4735 
