Start - Fri Mar  9 10:11:18 CET 2018
14071, 10228, 9861, 9127, 8117, 7827, 7390, 5860, 5712, 5085, 4985, 4822, 
Average node degree: 2.317755737832118
Read edges time: 2.427
100000
200000
300000
400000
500000
600000
700000
800000
900000
1000000
Serialized data is saved
Partial Time: 10402.027 : 7039.129 : 1922.03 : 0.0
Index generation time: 11446.408
Finish - Fri Mar  9 13:22:08 CET 2018
